{
	"info": {
		"_postman_id": "0cdd8d7d-87ce-4112-aa98-ed3427b35e35",
		"name": "Craft Beers",
		"schema": "https://schema.getpostman.com/json/collection/v2.1.0/collection.json"
	},
	"item": [
		{
			"name": "POST Beer",
			"request": {
				"method": "POST",
				"header": [
					{
						"key": "Content-Type",
						"name": "Content-Type",
						"value": "application/json",
						"type": "text"
					}
				],
				"body": {
					"mode": "raw",
					"raw": "{\n\t\"name\": \"Heineken\",\n\t\"ingredients\": \"cevada Alemã\",\n\t\"alcoholContent\": \"23%\",\n\t\"price\": 8.52,\n\t\"category\": \"Importada\"\n}\n",
					"options": {
						"raw": {
							"language": "json"
						}
					}
				},
				"url": {
					"raw": "localhost:{{port}}/beers",
					"host": [
						"localhost"
					],
					"port": "{{port}}",
					"path": [
						"beers"
					]
				}
			},
			"response": []
		},
		{
			"name": "GET all Beers",
			"request": {
				"method": "GET",
				"header": [],
				"url": {
					"raw": "localhost:{{port}}/beers",
					"host": [
						"localhost"
					],
					"port": "{{port}}",
					"path": [
						"beers"
					]
				}
			},
			"response": []
		},
		{
			"name": "GET Beer by ID",
			"request": {
				"method": "GET",
				"header": [],
				"url": {
					"raw": "localhost:{{port}}/beers/2",
					"host": [
						"localhost"
					],
					"port": "{{port}}",
					"path": [
						"beers",
						"2"
					]
				}
			},
			"response": []
		},
		{
			"name": "PUT Beer",
			"request": {
				"method": "PUT",
				"header": [
					{
						"key": "Content-Type",
						"name": "Content-Type",
						"value": "application/json",
						"type": "text"
					}
				],
				"body": {
					"mode": "raw",
					"raw": "{\n\t\"name\": \"bavaria_updated\",\n\t\"ingredients\": \"cevada_updated\",\n\t\"alcoholContent\": \"15%\",\n\t\"price\": 5.2,\n\t\"category\": \"gurmmet\"\n}",
					"options": {
						"raw": {
							"language": "json"
						}
					}
				},
				"url": {
					"raw": "localhost:{{port}}/beers/2",
					"host": [
						"localhost"
					],
					"port": "{{port}}",
					"path": [
						"beers",
						"2"
					]
				}
			},
			"response": []
		},
		{
			"name": "DELETE Beer",
			"request": {
				"method": "DELETE",
				"header": [],
				"url": {
					"raw": "localhost:{{port}}/beers/1",
					"host": [
						"localhost"
					],
					"port": "{{port}}",
					"path": [
						"beers",
						"1"
					]
				}
			},
			"response": []
		},
		{
			"name": "PATH Beer",
			"request": {
				"method": "PATCH",
				"header": [
					{
						"key": "Content-Type",
						"name": "Content-Type",
						"value": "application/json",
						"type": "text"
					}
				],
				"body": {
					"mode": "raw",
					"raw": "{\n\t\"name\": \"bavaria_pathed\",\n\t\"ingredients\": \"cevada_pathed\",\n\t\"price\": 3.2\n}",
					"options": {
						"raw": {
							"language": "json"
						}
					}
				},
				"url": {
					"raw": "localhost:{{port}}/beers/2",
					"host": [
						"localhost"
					],
					"port": "{{port}}",
					"path": [
						"beers",
						"2"
					]
				}
			},
			"response": []
		}
	],
	"protocolProfileBehavior": {}
}